-------------------------------------------------------------------------------
Test set: edu.ntnu.idatt2001.UnitTest$ResistanceBonusWithTerrainTest
-------------------------------------------------------------------------------
Tests run: 3, Failures: 0, Errors: 0, Skipped: 0, Time elapsed: 0.003 s - in edu.ntnu.idatt2001.UnitTest$ResistanceBonusWithTerrainTest
