-------------------------------------------------------------------------------
Test set: edu.ntnu.idatt2001.ArmyTest$ChangeUnitTests
-------------------------------------------------------------------------------
Tests run: 3, Failures: 0, Errors: 0, Skipped: 0, Time elapsed: 0.004 s - in edu.ntnu.idatt2001.ArmyTest$ChangeUnitTests
