C:\Users\brage\programming\wargames\src\main\java\edu\ntnu\idatt2001\Battle.java
C:\Users\brage\programming\wargames\src\main\java\edu\ntnu\idatt2001\factory\UnitFactory.java
C:\Users\brage\programming\wargames\src\main\java\edu\ntnu\idatt2001\units\CommanderUnit.java
C:\Users\brage\programming\wargames\src\main\java\edu\ntnu\idatt2001\Unit.java
C:\Users\brage\programming\wargames\src\main\java\edu\ntnu\idatt2001\enums\UnitType.java
C:\Users\brage\programming\wargames\src\main\java\edu\ntnu\idatt2001\units\InfantryUnit.java
C:\Users\brage\programming\wargames\src\main\java\edu\ntnu\idatt2001\fileconversion\CSVConverter.java
C:\Users\brage\programming\wargames\src\main\java\edu\ntnu\idatt2001\enums\Terrain.java
C:\Users\brage\programming\wargames\src\main\java\edu\ntnu\idatt2001\fileconversion\FileHandlerException.java
C:\Users\brage\programming\wargames\src\main\java\edu\ntnu\idatt2001\Army.java
C:\Users\brage\programming\wargames\src\main\java\edu\ntnu\idatt2001\GUI\Main.java
C:\Users\brage\programming\wargames\src\main\java\edu\ntnu\idatt2001\units\CavalryUnit.java
C:\Users\brage\programming\wargames\src\main\java\edu\ntnu\idatt2001\GUI\controller\WargamesController.java
C:\Users\brage\programming\wargames\src\main\java\edu\ntnu\idatt2001\GUI\controller\ArmyCreatorController.java
C:\Users\brage\programming\wargames\src\main\java\edu\ntnu\idatt2001\GUI\WargamesApp.java
C:\Users\brage\programming\wargames\src\main\java\module-info.java
C:\Users\brage\programming\wargames\src\main\java\edu\ntnu\idatt2001\units\RangedUnit.java
