C:\Users\brage\programming\wargames\src\test\java\edu\ntnu\idatt2001\UnitFactoryTest.java
C:\Users\brage\programming\wargames\src\test\java\edu\ntnu\idatt2001\ArmyTest.java
C:\Users\brage\programming\wargames\src\test\java\edu\ntnu\idatt2001\CSVConverterTest.java
C:\Users\brage\programming\wargames\src\test\java\edu\ntnu\idatt2001\UnitTest.java
C:\Users\brage\programming\wargames\src\test\java\edu\ntnu\idatt2001\BattleTest.java
